^C:\USERS\ВЛАД\SOURCE\REPOS\PROJECT35\PROJECT35\DEBUG\MATRIX.OBJ|C:\USERS\ВЛАД\SOURCE\REPOS\PROJECT35\PROJECT35\DEBUG\SOURCE.OBJ
C:\USERS\влад\SOURCE\REPOS\PROJECT35\DEBUG\PROJECT35.ILK
C:\USERS\влад\SOURCE\REPOS\PROJECT35\DEBUG\PROJECT35.EXE
C:\USERS\ВЛАД\SOURCE\REPOS\PROJECT35\DEBUG\PROJECT35.PDB
